{
  "version": "v4",
  "repo": "borisyankov/DefinitelyTyped",
  "ref": "master",
  "path": "typings",
  "bundle": "typings/tsd.d.ts",
  "installed": {
    "react/react-global.d.ts": {
      "commit": "984a41af67d76b5134e0d4991a30f813dfb8561f"
    },
    "react/react-dom.d.ts": {
      "commit": "984a41af67d76b5134e0d4991a30f813dfb8561f"
    },
    "react/react-addons-create-fragment.d.ts": {
      "commit": "984a41af67d76b5134e0d4991a30f813dfb8561f"
    },
    "react/react-addons-css-transition-group.d.ts": {
      "commit": "984a41af67d76b5134e0d4991a30f813dfb8561f"
    },
    "react/react-addons-transition-group.d.ts": {
      "commit": "984a41af67d76b5134e0d4991a30f813dfb8561f"
    },
    "react/react.d.ts": {
      "commit": "984a41af67d76b5134e0d4991a30f813dfb8561f"
    },
    "react/react-addons-linked-state-mixin.d.ts": {
      "commit": "984a41af67d76b5134e0d4991a30f813dfb8561f"
    },
    "react/react-addons-perf.d.ts": {
      "commit": "984a41af67d76b5134e0d4991a30f813dfb8561f"
    },
    "react/react-addons-pure-render-mixin.d.ts": {
      "commit": "984a41af67d76b5134e0d4991a30f813dfb8561f"
    },
    "react/react-addons-test-utils.d.ts": {
      "commit": "984a41af67d76b5134e0d4991a30f813dfb8561f"
    },
    "react/react-addons-update.d.ts": {
      "commit": "984a41af67d76b5134e0d4991a30f813dfb8561f"
    }
  }
}
